…
We can also use `tibble` to get a quick view of the data frame

```r
library(tidyverse)
tbl_df(cchs)
```

```
## # A tibble: 124,929 x 5
##    CASEID  verdate geogprv hwtghtm hwtgwtk
##     <int>    <int>   <int>   <dbl>   <dbl>
##  1      1 20130913      35    1.58    65.2
##  2      2 20130913      59    1.90    99  
##  3      3 20130913      35    1.80    77.4
##  4      4 20130913      46    1.73    85.5
##  5      5 20130913      24    1.80    81  
##  6      6 20130913      48    1.73    78.8
##  7      7 20130913      12    1.63    62.1
##  8      8 20130913      48   10.00  1000. 
##  9      9 20130913      35    1.90   106. 
## 10     10 20130913      59    1.85    85.5
## # … with 124,919 more rows
```
…
