…
We can also use `tibble` to get a quick view of the data frame

```r
library(tidyverse)
tbl_df(cchs)
```

```
## # A tibble: 124,929 x 5
##    CASEID  verdate geogprv hwtghtm hwtgwtk
##     <int>    <int>   <int>   <dbl>   <dbl>
##  1      1 20130913      35   1.575   65.25
##  2      2 20130913      59   1.905   99.00
##  3      3 20130913      35   1.803   77.40
##  4      4 20130913      46   1.727   85.50
##  5      5 20130913      24   1.803   81.00
##  6      6 20130913      48   1.727   78.75
##  7      7 20130913      12   1.626   62.10
##  8      8 20130913      48   9.999  999.99
##  9      9 20130913      35   1.905  105.75
## 10     10 20130913      59   1.854   85.50
## # ... with 124,919 more rows
```
…
